{
	"type": "boolean",
	"category": "mouse",
	"group": "general",
	"name": "Pointer localization",
	"description": "",
	"command-get": "mouse-localize.sh get",
	"command-set": "mouse-localize.sh set \"${HCP_VALUE}\"",
	"command-enabled": "mouse-localize.sh status",
	"states": { "true": true, "false": false }
}
