{
	"type": "scale",
	"category": "mouse",
	"group": "touchpad",
	"name": "Touchpad speed",
	"description": "How fast the touchpad moves the pointer",
	"COMMENT": "Values and conversions are based on the Hypra Buster version of MATE, which widen the lower accessible range",
	"command-get": "python3 -c \"v=$(gsettings get org.mate.peripherals-touchpad motion-acceleration); print(v + 1 if v < -1 else v - 1 if v >= 1 else 5.5 if v == -1 else v)\"",
	"command-set": "gsettings set org.mate.peripherals-touchpad motion-acceleration \"$(python3 -c \"v=${HCP_VALUE}; print(v - 1 if v < 0 else v + 1)\")\"",
	"command-enabled": "test x\"$(gsettings writable org.mate.peripherals-touchpad motion-acceleration)\" = xtrue",
	"TODO": "Minimum can be down to -9; but MCC only shows down to 1",
	"range": { "min": -2, "max": 9 },
	"marks": { "min": "slow", "4.5": "default", "max": "fast" },
	"precision": "1",
	"value-position": null,
	"size-group": "mouse-speed"
}
