{
	"type": "boolean",
	"category": "vocal",
	"group": "screen-reader",
	"name": "Spell keyboard keys",
	"command-get": "orca-setting.py get enableKeyEcho",
	"command-set": "orca-setting.py set enableKeyEcho \"${HCP_VALUE}\"",
	"command-enabled": "orca-setting.py status enableKeyEcho",
	"states": { "true": true, "false": false, "null": false }
}
