{
	"type": "combo",
	"category": "vocal",
	"group": "screen-reader",
	"name": "Voice",
	"command-get": "orca-setting.py get @voice.all",
	"command-set": "orca-setting.py set @voice.all \"${HCP_VALUE}\"",
	"command-enabled": "orca-setting.py status speechServerInfo",
	"command-states": "orca-setting.py list-voices"
}
