{
	"type": "boolean",
	"category": "vocal",
	"group": "general",
	"name": "Use the screen reader",
	"description": "Enable the screen reader",
	"command-get": "orca-enabled.sh get",
	"command-set": "orca-enabled.sh set \"$HCP_VALUE\"",
	"command-enabled": "orca-enabled.sh status",
	"states": { "true": true, "false": false }
}
