{
	"type": "combo",
	"category": "vocal",
	"group": "screen-reader",
	"name": "Speech rate",
	"description": "Speech rate for all voices",
	"command-get": "orca-setting.py get @voice.rate.all",
	"command-set": "orca-setting.py set @voice.rate.all ${HCP_VALUE}",
	"command-enabled": "orca-setting.py status @voices.rate.all",
	"states": { "20.0": "Slow", "35.0": "Default", "60.0": "Fast", "75.0": "Very fast" }
}
